{
  "kafka": {
    "groupId": "kafka",
    "broker": "localhost:9092",
    "topics": ["topic"]
  },
  "loggly": {
    "token": "71e8f2d8-200e-40b0-8917-d9634e9949b5",
    "subdomain": "studiofathom",
    "auth": {
      "username": "carlo",
      "password": "Ga build m3w stunt"
    },
    "tags": ["part-model-analytics"],
    "json": true
  }
}